"symbol","date","openTime","open","high","low","close","volume"
"'DAIETH'",1598918400000,1598918400000,"426.06000000","481.09000000","425.72000000","469.86000000","1179.46939000"
"'DAIETH'",1599004800000,1599004800000,"471.16000000","474.02000000","417.96000000","438.25000000","967.98594000"
"'DAIETH'",1599091200000,1599091200000,"435.24000000","446.36000000","370.50000000","379.80000000","1441.35480000"
"'DAIETH'",1599177600000,1599177600000,"378.12000000","394.89000000","358.31000000","379.52000000","1990.88027000"
"'DAIETH'",1599264000000,1599264000000,"378.68000000","386.39000000","306.90000000","329.90000000","7427.11569000"
"'DAIETH'",1599350400000,1599350400000,"329.33000000","353.12000000","312.33000000","346.48000000","2286.49748000"
"'DAIETH'",1599436800000,1599436800000,"347.40000000","350.27000000","317.84000000","342.62000000","1940.73610000"
"'DAIETH'",1599523200000,1599523200000,"345.51000000","345.51000000","319.19000000","329.24000000","2057.38844000"
"'DAIETH'",1599609600000,1599609600000,"329.41000000","350.88000000","324.10000000","340.92000000","631.31351000"
"'DAIETH'",1599696000000,1599696000000,"345.81000000","364.24000000","345.37000000","355.62000000","1738.30914000"
"'DAIETH'",1599782400000,1599782400000,"357.00000000","361.84000000","344.48000000","361.44000000","680.64451000"
"'DAIETH'",1599868800000,1599868800000,"359.90000000","376.87000000","353.75000000","376.87000000","391.69313000"
"'DAIETH'",1599955200000,1599955200000,"375.12000000","383.98000000","346.02000000","357.52000000","1144.08684000"
"'DAIETH'",1600041600000,1600041600000,"357.31000000","369.86000000","348.03000000","363.12000000","1887.41430000"
"'DAIETH'",1600128000000,1600128000000,"365.11000000","370.36000000","354.70000000","356.67000000","1382.17241000"
"'DAIETH'",1600214400000,1600214400000,"356.30000000","367.89000000","348.58000000","360.76000000","1593.98502000"
"'DAIETH'",1600300800000,1600300800000,"359.00000000","386.16000000","358.58000000","381.66000000","4686.85670000"
"'DAIETH'",1600387200000,1600387200000,"381.46000000","384.74000000","369.36000000","376.07000000","2098.67313000"
"'DAIETH'",1600473600000,1600473600000,"377.46000000","383.68000000","371.89000000","381.02000000","767.42654000"
"'DAIETH'",1600560000000,1600560000000,"379.70000000","379.78000000","361.49000000","366.60000000","896.16127000"
"'DAIETH'",1600646400000,1600646400000,"366.16000000","372.37000000","328.00000000","336.97000000","1946.90088000"
"'DAIETH'",1600732800000,1600732800000,"336.39000000","342.38000000","332.55000000","338.77000000","714.47396000"
"'DAIETH'",1600819200000,1600819200000,"339.86000000","340.55000000","310.00000000","316.63000000","1055.84107000"
"'DAIETH'",1600905600000,1600905600000,"314.56000000","348.21000000","313.29000000","344.59000000","1248.30615000"
"'DAIETH'",1600992000000,1600992000000,"345.30000000","354.26000000","334.53000000","348.38000000","1597.19663000"
"'DAIETH'",1601078400000,1601078400000,"349.72000000","352.47000000","342.70000000","350.01000000","386.72517000"
"'DAIETH'",1601164800000,1601164800000,"352.89000000","357.62000000","344.38000000","353.79000000","395.42699000"
"'DAIETH'",1601251200000,1601251200000,"354.52000000","363.72000000","347.90000000","350.00000000","984.86840000"
"'DAIETH'",1601337600000,1601337600000,"348.37000000","356.07000000","347.55000000","355.99000000","571.28257000"
"'DAIETH'",1601424000000,1601424000000,"354.43000000","356.54000000","348.53000000","356.28000000","591.26244000"
"'DAIETH'",1601510400000,1601510400000,"357.31000000","365.96000000","342.20000000","349.00000000","397.31072000"
"'DAIETH'",1601596800000,1601596800000,"348.29000000","350.29000000","331.21000000","342.59000000","2888.67215000"
"'DAIETH'",1601683200000,1601683200000,"340.03000000","347.83000000","340.03000000","342.97000000","186.44168000"
"'DAIETH'",1601769600000,1601769600000,"344.10000000","350.12000000","340.57000000","348.60000000","564.10509000"
"'DAIETH'",1601856000000,1601856000000,"351.05000000","351.34000000","346.17000000","349.84000000","182.15376000"
"'DAIETH'",1601942400000,1601942400000,"350.53000000","350.89000000","334.10000000","336.84000000","640.36642000"
"'DAIETH'",1602028800000,1602028800000,"336.43000000","338.78000000","330.22000000","338.37000000","516.11727000"
"'DAIETH'",1602115200000,1602115200000,"336.85000000","349.19000000","332.35000000","346.84000000","425.52944000"
"'DAIETH'",1602201600000,1602201600000,"347.10000000","364.00000000","343.81000000","361.49000000","502.45443000"
"'DAIETH'",1602288000000,1602288000000,"361.45000000","373.81000000","361.01000000","366.62000000","454.81269000"
"'DAIETH'",1602374400000,1602374400000,"367.19000000","373.80000000","365.91000000","371.13000000","262.19448000"
"'DAIETH'",1602460800000,1602460800000,"370.27000000","390.66000000","360.45000000","383.16000000","504.25771000"
"'DAIETH'",1602547200000,1602547200000,"383.26000000","383.56000000","371.34000000","377.00000000","338.74586000"
"'DAIETH'",1602633600000,1602633600000,"377.44000000","383.49000000","370.29000000","375.53000000","282.39340000"
"'DAIETH'",1602720000000,1602720000000,"375.39000000","377.60000000","367.28000000","373.44000000","232.15237000"
"'DAIETH'",1602806400000,1602806400000,"373.36000000","376.69000000","359.22000000","362.75000000","274.96896000"
"'DAIETH'",1602892800000,1602892800000,"362.39000000","367.01000000","360.90000000","364.72000000","218.15645000"
"'DAIETH'",1602979200000,1602979200000,"364.69000000","374.76000000","364.37000000","373.87000000","305.46494000"
"'DAIETH'",1603065600000,1603065600000,"374.22000000","380.25000000","369.65000000","376.51000000","235.47696000"
"'DAIETH'",1603152000000,1603152000000,"376.54000000","376.87000000","230.00000000","365.16000000","492.70421000"
"'DAIETH'",1603238400000,1603238400000,"366.28000000","397.72000000","366.28000000","387.80000000","892.20053000"
"'DAIETH'",1603324800000,1603324800000,"389.70000000","417.42000000","388.82000000","410.93000000","1560.09701000"
"'DAIETH'",1603411200000,1603411200000,"409.80000000","415.88000000","398.76000000","406.24000000","1071.73368000"
"'DAIETH'",1603497600000,1603497600000,"405.27000000","413.58000000","404.48000000","409.48000000","253.91807000"
"'DAIETH'",1603584000000,1603584000000,"408.17000000","414.65000000","402.00000000","403.93000000","435.77434000"
"'DAIETH'",1603670400000,1603670400000,"402.07000000","407.22000000","380.61000000","391.58000000","503.97214000"
"'DAIETH'",1603756800000,1603756800000,"391.30000000","406.45000000","387.70000000","400.51000000","875.18207000"
"'DAIETH'",1603843200000,1603843200000,"401.61000000","405.31000000","377.88000000","384.93000000","1030.02770000"
"'DAIETH'",1603929600000,1603929600000,"385.88000000","390.40000000","379.08000000","384.00000000","340.44870000"
"'DAIETH'",1604016000000,1604016000000,"382.14000000","388.26000000","371.28000000","379.99000000","1105.02268000"
"'DAIETH'",1604102400000,1604102400000,"379.00000000","389.79000000","377.43000000","383.22000000","457.06070000"
"'DAIETH'",1604188800000,1604188800000,"382.34000000","393.32000000","382.01000000","391.95000000","245.95749000"
"'DAIETH'",1604275200000,1604275200000,"392.63000000","399.99000000","374.92000000","380.05000000","621.44893000"
"'DAIETH'",1604361600000,1604361600000,"379.08000000","385.47000000","367.32000000","384.04000000","550.09577000"
"'DAIETH'",1604448000000,1604448000000,"383.67000000","404.73000000","374.06000000","397.00000000","650.47820000"
"'DAIETH'",1604534400000,1604534400000,"398.97000000","416.11000000","393.94000000","413.58000000","950.85676000"
"'DAIETH'",1604620800000,1604620800000,"412.61000000","453.34000000","412.61000000","451.58000000","2020.92225000"
"'DAIETH'",1604707200000,1604707200000,"451.53000000","463.26000000","422.29000000","431.13000000","1765.04355000"
"'DAIETH'",1604793600000,1604793600000,"430.39000000","456.00000000","428.76000000","451.51000000","556.80178000"
"'DAIETH'",1604880000000,1604880000000,"451.51000000","454.64000000","430.84000000","440.82000000","679.45711000"
"'DAIETH'",1604966400000,1604966400000,"440.54000000","451.00000000","436.10000000","447.18000000","432.57743000"
"'DAIETH'",1605052800000,1605052800000,"448.57000000","471.62000000","446.83000000","459.18000000","478.02233000"
"'DAIETH'",1605139200000,1605139200000,"457.47000000","465.99000000","449.43000000","459.41000000","593.41473000"
"'DAIETH'",1605225600000,1605225600000,"459.41000000","473.41000000","455.16000000","472.80000000","395.63989000"
"'DAIETH'",1605312000000,1605312000000,"473.44000000","475.04000000","449.99000000","459.31000000","310.02791000"
"'DAIETH'",1605398400000,1605398400000,"457.08000000","458.59000000","438.39000000","447.01000000","314.24924000"
"'DAIETH'",1605484800000,1605484800000,"444.21000000","463.10000000","443.63000000","458.55000000","774.99011000"
"'DAIETH'",1605571200000,1605571200000,"461.00000000","482.60000000","459.68000000","480.58000000","945.84599000"
"'DAIETH'",1605657600000,1605657600000,"480.20000000","493.37000000","455.00000000","477.31000000","1595.77011000"
"'DAIETH'",1605744000000,1605744000000,"476.80000000","477.90000000","463.70000000","469.50000000","416.08980000"
"'DAIETH'",1605830400000,1605830400000,"470.94000000","511.79000000","470.53000000","506.77000000","1157.11679000"
"'DAIETH'",1605916800000,1605916800000,"508.51000000","551.29000000","501.28000000","550.65000000","1073.32443000"
"'DAIETH'",1606003200000,1606003200000,"551.69000000","578.92000000","510.31000000","559.26000000","1856.82913000"
"'DAIETH'",1606089600000,1606089600000,"561.72000000","609.50000000","549.85000000","607.17000000","1909.17741000"
"'DAIETH'",1606176000000,1606176000000,"607.93000000","620.97000000","588.54000000","602.83000000","2393.83745000"
"'DAIETH'",1606262400000,1606262400000,"603.78000000","605.00000000","554.68000000","569.40000000","2278.46869000"
"'DAIETH'",1606348800000,1606348800000,"565.89000000","575.04000000","475.61000000","518.13000000","6203.73828000"
"'DAIETH'",1606435200000,1606435200000,"520.90000000","531.26000000","493.25000000","515.90000000","1486.56161000"
"'DAIETH'",1606521600000,1606521600000,"517.72000000","546.00000000","505.23000000","536.34000000","944.60067000"
"'DAIETH'",1606608000000,1606608000000,"536.55000000","573.32000000","530.00000000","573.31000000","692.40235000"
"'DAIETH'",1606694400000,1606694400000,"574.00000000","612.56000000","568.15000000","612.56000000","2014.32602000"
"'DAIETH'",1606780800000,1606780800000,"612.64000000","631.11000000","546.00000000","585.25000000","2205.41956000"
"'DAIETH'",1606867200000,1606867200000,"582.04000000","605.93000000","573.11000000","595.19000000","1466.31849000"
"'DAIETH'",1606953600000,1606953600000,"594.98000000","620.22000000","585.00000000","615.84000000","678.31779000"
"'DAIETH'",1607040000000,1607040000000,"612.33000000","616.73000000","564.46000000","565.23000000","935.38234000"
"'DAIETH'",1607126400000,1607126400000,"563.79000000","594.19000000","559.24000000","593.78000000","517.39420000"
"'DAIETH'",1607212800000,1607212800000,"595.31000000","604.46000000","581.10000000","597.64000000","645.78216000"
"'DAIETH'",1607299200000,1607299200000,"596.00000000","599.38000000","582.84000000","589.51000000","489.98750000"
"'DAIETH'",1607385600000,1607385600000,"587.81000000","591.42000000","547.02000000","550.71000000","946.14613000"
"'DAIETH'",1607472000000,1607472000000,"551.26000000","575.01000000","528.00000000","571.86000000","1365.70729000"
"'DAIETH'",1607558400000,1607558400000,"571.92000000","572.70000000","545.90000000","555.92000000","675.87295000"
"'DAIETH'",1607644800000,1607644800000,"554.40000000","555.14000000","533.68000000","542.82000000","836.07858000"
"'DAIETH'",1607731200000,1607731200000,"541.35000000","572.98000000","541.35000000","566.59000000","558.82689000"
"'DAIETH'",1607817600000,1607817600000,"566.59000000","593.00000000","563.31000000","589.20000000","558.37495000"
"'DAIETH'",1607904000000,1607904000000,"584.48000000","589.81000000","574.21000000","584.09000000","318.59974000"
"'DAIETH'",1607990400000,1607990400000,"584.83000000","595.00000000","577.03000000","587.75000000","442.18129000"
"'DAIETH'",1608076800000,1608076800000,"585.36000000","638.06000000","580.00000000","635.77000000","1071.12543000"
"'DAIETH'",1608163200000,1608163200000,"638.10000000","674.84000000","625.75000000","642.42000000","5637.38232000"
"'DAIETH'",1608249600000,1608249600000,"641.76000000","662.70000000","628.37000000","652.89000000","5685.78400000"
"'DAIETH'",1608336000000,1608336000000,"653.26000000","668.32000000","645.10000000","657.43000000","6285.16919000"
"'DAIETH'",1608422400000,1608422400000,"657.33000000","659.50000000","620.98000000","637.28000000","7096.38282000"
"'DAIETH'",1608508800000,1608508800000,"637.25000000","646.67000000","595.00000000","607.38000000","8462.74120000"
"'DAIETH'",1608595200000,1608595200000,"606.98000000","636.05000000","587.85000000","635.70000000","8327.77016000"
"'DAIETH'",1608681600000,1608681600000,"636.15000000","636.54000000","550.27000000","584.73000000","12689.81934000"
"'DAIETH'",1608768000000,1608768000000,"584.01000000","613.03000000","564.81000000","610.81000000","10628.47248000"
"'DAIETH'",1608854400000,1608854400000,"610.79000000","631.71000000","603.71000000","624.81000000","5830.67657000"
"'DAIETH'",1608940800000,1608940800000,"624.83000000","650.00000000","614.35000000","634.86000000","5979.44259000"
"'DAIETH'",1609027200000,1609027200000,"634.90000000","712.91000000","621.94000000","680.65000000","8339.11978000"
"'DAIETH'",1609113600000,1609113600000,"682.02000000","744.85000000","679.51000000","727.17000000","4621.16001000"
"'DAIETH'",1609200000000,1609200000000,"727.16000000","736.07000000","688.16000000","729.80000000","5229.66848000"
"'DAIETH'",1609286400000,1609286400000,"729.80000000","754.75000000","715.06000000","749.99000000","4272.91448000"
"'DAIETH'",1609372800000,1609372800000,"750.00000000","752.20000000","720.22000000","734.12000000","3244.26476000"
"'DAIETH'",1609459200000,1609459200000,"734.22000000","746.50000000","712.91000000","726.82000000","2296.18614000"
"'DAIETH'",1609545600000,1609545600000,"727.49000000","787.15000000","715.00000000","773.89000000","4058.64184000"
"'DAIETH'",1609632000000,1609632000000,"774.66000000","1009.18000000","768.77000000","975.92000000","5160.45776000"
"'DAIETH'",1609718400000,1609718400000,"978.67000000","1163.95000000","882.10000000","1041.30000000","23319.53136000"
"'DAIETH'",1609804800000,1609804800000,"1040.36000000","1130.65000000","976.00000000","1099.65000000","22725.31609000"
"'DAIETH'",1609891200000,1609891200000,"1099.69000000","1212.47000000","1058.06000000","1207.46000000","20177.16083000"
"'DAIETH'",1609977600000,1609977600000,"1207.73000000","1287.85000000","1146.46000000","1224.69000000","17645.26995000"
"'DAIETH'",1610064000000,1610064000000,"1225.08000000","1272.00000000","1054.78000000","1216.57000000","26007.81490000"
"'DAIETH'",1610150400000,1610150400000,"1217.70000000","1304.33000000","1175.42000000","1278.04000000","15013.33406000"
"'DAIETH'",1610236800000,1610236800000,"1278.24000000","1348.69000000","1050.00000000","1255.76000000","19578.86952000"
"'DAIETH'",1610323200000,1610323200000,"1255.61000000","1259.21000000","913.73000000","1087.64000000","51428.30333000"
"'DAIETH'",1610409600000,1610409600000,"1087.62000000","1149.72000000","1006.28000000","1050.61000000","24963.07454000"
"'DAIETH'",1610496000000,1610496000000,"1049.61000000","1136.38000000","985.49000000","1129.04000000","20617.93610000"
"'DAIETH'",1610582400000,1610582400000,"1129.43000000","1243.37000000","1087.41000000","1227.32000000","16453.55335000"
"'DAIETH'",1610668800000,1610668800000,"1228.44000000","1252.45000000","1056.87000000","1168.47000000","21410.75050000"
"'DAIETH'",1610755200000,1610755200000,"1168.71000000","1289.13000000","1152.00000000","1227.88000000","15635.32093000"
"'DAIETH'",1610841600000,1610841600000,"1228.11000000","1267.01000000","1167.22000000","1232.39000000","13534.59115000"
"'DAIETH'",1610928000000,1610928000000,"1232.83000000","1258.86000000","1182.95000000","1256.00000000","9528.33703000"
"'DAIETH'",1611014400000,1611014400000,"1256.76000000","1435.95000000","1249.14000000","1368.68000000","29932.38610000"
"'DAIETH'",1611100800000,1611100800000,"1368.68000000","1407.27000000","1237.18000000","1377.03000000","20777.40893000"